module citi-backend

go 1.19

require (
	github.com/codeginga/locevt v0.0.0-20190214060509-b70a75df8e90
	github.com/go-chi/chi v1.5.5
	github.com/go-redis/redis v6.15.9+incompatible
	github.com/google/uuid v1.6.0
	github.com/gorilla/websocket v1.5.1
	github.com/sirupsen/logrus v1.9.3
	github.com/spf13/viper v1.18.2
	go.mongodb.org/mongo-driver v1.15.0
	go.uber.org/dig v1.17.1
	golang.org/x/crypto v0.23.0
	gopkg.in/go-playground/validator.v9 v9.31.0
)

require (
	github.com/fsnotify/fsnotify v1.7.0 // indirect
	github.com/go-playground/locales v0.14.1 // indirect
	github.com/go-playground/universal-translator v0.18.1 // indirect
	github.com/golang/snappy v0.0.1 // indirect
	github.com/google/go-cmp v0.6.0 // indirect
	github.com/hashicorp/hcl v1.0.0 // indirect
	github.com/klauspost/compress v1.17.0 // indirect
	github.com/leodido/go-urn v1.4.0 // indirect
	github.com/magiconair/properties v1.8.7 // indirect
	github.com/mitchellh/mapstructure v1.5.0 // indirect
	github.com/montanaflynn/stats v0.0.0-20171201202039-1bf9dbcd8cbe // indirect
	github.com/onsi/ginkgo v1.16.5 // indirect
	github.com/onsi/gomega v1.33.1 // indirect
	github.com/pelletier/go-toml/v2 v2.1.0 // indirect
	github.com/sagikazarmark/locafero v0.4.0 // indirect
	github.com/sagikazarmark/slog-shim v0.1.0 // indirect
	github.com/sourcegraph/conc v0.3.0 // indirect
	github.com/spf13/afero v1.11.0 // indirect
	github.com/spf13/cast v1.6.0 // indirect
	github.com/spf13/pflag v1.0.5 // indirect
	github.com/subosito/gotenv v1.6.0 // indirect
	github.com/xdg-go/pbkdf2 v1.0.0 // indirect
	github.com/xdg-go/scram v1.1.2 // indirect
	github.com/xdg-go/stringprep v1.0.4 // indirect
	github.com/youmark/pkcs8 v0.0.0-20181117223130-1be2e3e5546d // indirect
	go.uber.org/atomic v1.9.0 // indirect
	go.uber.org/multierr v1.9.0 // indirect
	golang.org/x/exp v0.0.0-20230905200255-921286631fa9 // indirect
	golang.org/x/net v0.24.0 // indirect
	golang.org/x/sync v0.5.0 // indirect
	golang.org/x/sys v0.20.0 // indirect
	golang.org/x/text v0.15.0 // indirect
	gopkg.in/go-playground/assert.v1 v1.2.1 // indirect
	gopkg.in/ini.v1 v1.67.0 // indirect
	gopkg.in/yaml.v3 v3.0.1 // indirect
)
